@startuml

class SwitchingProducer extends SwitchingProxy
class SwitchingProxy extends DynamicClientProxy {
	+maybeReplaceProxiedObject(boolean)
}
class DynamicClientProxy {
}
class DiscoverySubscriber<T extends ClientProxy> implements ClientProxyReplacer {
	switcher: ClientProxySwitcher
}
interface ClientProxyReplacer {
	+needToReplace(): boolean
	+replace(oldProxy: T, config: C): T
	+close()
}
interface ClientProxySwitcher {
}

SwitchingProxy --> DiscoverySubscriber: contains
DynamicClientProxy --> ClientProxyReplacer: contains
DiscoverySubscriber --> ClientProxySwitcher
note right of DynamicClientProxy: proxy replacer in client proxy is same object instance\nas subscriber in switching proxy!


@enduml